^C:\SOURCE\COMMON\API\MIRANDA\DLLTEST2010\RELEASE\DLLTEST.OBJ|C:\SOURCE\COMMON\API\MIRANDA\DLLTEST2010\RELEASE\DLLTEST.RES|C:\SOURCE\COMMON\API\MIRANDA\DLLTEST2010\RELEASE\DLLTESTDLG.OBJ|C:\SOURCE\COMMON\API\MIRANDA\DLLTEST2010\RELEASE\STDAFX.OBJ
C:\SOURCE\COMMON\API\MIRANDA\DLLTEST2010\RELEASE\DLLTEST.EXE
C:\SOURCE\COMMON\API\MIRANDA\DLLTEST2010\RELEASE\DLLTEST.EXE.INTERMEDIATE.MANIFEST
